partition <- createDataPartition(breast_cancer$diagnosis, p=0.8, list=F)
> train <- breast_cancer[partition,]
> test <- breast_cancer[-partition,]
> sc_train<-as.data.frame(scale(breast_cancer[,-1]), scale=T, center=T)
> sc_test<-as.data.frame(scale(breast_cancer[,-1]), scale=T, center=T)
> train
# A tibble: 456 x 31
   diagnosis radius_mean texture_mean perimeter_mean area_mean smoothness_mean compactness_mean concavity_mean points_mean
   <fct>           <dbl>        <dbl>          <dbl>     <dbl>           <dbl>            <dbl>          <dbl>       <dbl>
 1 Benign           11.0         16.8           70.9      373.          0.108            0.0780       0.0305       0.0248 
 2 Benign           11.3         13.4           73        385.          0.116            0.114        0.0464       0.0480 
 3 Benign           15.2         13.2           97.6      712.          0.0796           0.0693       0.0339       0.0266 
 4 Benign           11.6         19.0           74.2      410.          0.0855           0.0772       0.0548       0.0143 
 5 Benign           11.5         23.9           74.5      404.          0.0926           0.102        0.111        0.0411 
 6 Benign           10.5         19.3           67.4      336.          0.0999           0.0858       0.0300       0.0120 
 7 Malignant        20.6         21.2          138.      1320           0.108            0.164        0.219        0.112  
 8 Benign           12.2         17.9           78.3      460.          0.0865           0.0668       0.0388       0.0233 
 9 Benign           13.0         19.3           82.6      527.          0.0806           0.0379       0.000692     0.00417
10 Malignant        19.6         25            128.      1191           0.103            0.0987       0.166        0.0906 
# … with 446 more rows, and 22 more variables: symmetry_mean <dbl>, dimension_mean <dbl>, radius_se <dbl>, texture_se <dbl>,
#   perimeter_se <dbl>, area_se <dbl>, smoothness_se <dbl>, compactness_se <dbl>, concavity_se <dbl>, points_se <dbl>,
#   symmetry_se <dbl>, dimension_se <dbl>, radius_worst <dbl>, texture_worst <dbl>, perimeter_worst <dbl>, area_worst <dbl>,
#   smoothness_worst <dbl>, compactness_worst <dbl>, concavity_worst <dbl>, points_worst <dbl>, symmetry_worst <dbl>,
#   dimension_worst <dbl>
…
